{
  "version": 1,
  "license": "CC-BY-SA-3.0",
  "copyright": "discord by:Van#1931",
  "size": {
    "x": 32,
    "y": 32
  },
  "states": [
    {
      "name": "icon"
    },
    {
      "name": "icon-flash"
    },
    {
      "name": "off-equipped-HELMET",
      "directions": 4
    },
    {
      "name": "off-inhand-left",
      "directions": 4
    },
    {
      "name": "off-inhand-right",
      "directions": 4
    },
    {
      "name": "on-equipped-HELMET",
      "directions": 4
    },
    {
      "name": "on-inhand-left",
      "directions": 4
    },
    {
      "name": "on-inhand-right",
      "directions": 4
    }
  ]
}

