{
  "license": "CC-BY-SA-3.0",
  "copyright": "Taken from https://github.com/tgstation/tgstation/commit/53d1f1477d22a11a99c6c6924977cd431075761b",
  "version": 1,
  "size": {
    "x": 32,
    "y": 32
  },
  "states": [
    {
      "name": "mediborg",
      "directions": 4,
      "delays": [
        [
          0.1,
          0.1,
          0.1
        ],
        [
          0.1,
          0.1,
          0.1
        ],
        [
          0.1,
          0.1,
          0.1
        ],
        [
          0.1,
          0.1,
          0.1
        ]
      ]
    }
  ]
}
